<?xml version="1.0" encoding="utf-8"?>
<!-- Generator: Adobe Illustrator 21.0.2, SVG Export Plug-In . SVG Version: 6.00 Build 0)  -->
<svg version="1.1" id="Layer_1" xmlns="http://www.w3.org/2000/svg" xmlns:xlink="http://www.w3.org/1999/xlink" x="0px" y="0px"
	 width="254px" height="120px" viewBox="0 0 254 120" style="enable-background:new 0 0 254 120;" xml:space="preserve">
<style type="text/css">
	.st0{fill:#6F7076;}
	.st1{opacity:0.6;fill:#6F7076;enable-background:new    ;}
	.st2{opacity:0.3;fill:#6F7076;enable-background:new    ;}
</style>
<circle class="st0" cx="109" cy="60" r="5"/>
<circle class="st1" cx="127" cy="60" r="5"/>
<circle class="st2" cx="145" cy="60" r="5"/>
</svg>
