<?xml version="1.0" encoding="utf-8"?>
<!-- Generator: Adobe Illustrator 21.0.2, SVG Export Plug-In . SVG Version: 6.00 Build 0)  -->
<svg version="1.1" id="Layer_1" xmlns="http://www.w3.org/2000/svg" xmlns:xlink="http://www.w3.org/1999/xlink" x="0px" y="0px"
	 width="254px" height="120px" viewBox="0 0 254 120" style="enable-background:new 0 0 254 120;" xml:space="preserve">
<style type="text/css">
	.st0{opacity:0.6;fill:#6F7076;}
	.st1{fill:#6F7076;}
	.st2{opacity:0.4;fill:#6F7076;}
	.st3{opacity:0.8;fill:#6F7076;}
	.st4{opacity:0.3;fill:#6F7076;}
	.st5{opacity:0.7;fill:#6F7076;}
	.st6{opacity:0.5;fill:#6F7076;}
	.st7{opacity:0.9;fill:#6F7076;}
</style>
<rect x="126" y="43" class="st0" width="2" height="10"/>
<rect x="126" y="67" class="st1" width="2" height="10"/>
<g>
	<rect x="114" y="55" transform="matrix(-1.836970e-16 1 -1 -1.836970e-16 175 -55)" class="st2" width="2" height="10"/>
	<rect x="138" y="55" transform="matrix(-1.836970e-16 1 -1 -1.836970e-16 199 -79)" class="st3" width="2" height="10"/>
</g>
<rect x="114" y="55" transform="matrix(-1.836970e-16 1 -1 -1.836970e-16 175 -55)" class="st2" width="2" height="10"/>
<rect x="138" y="55" transform="matrix(-1.836970e-16 1 -1 -1.836970e-16 199 -79)" class="st3" width="2" height="10"/>
<rect x="117.5" y="63.5" transform="matrix(0.7071 0.7071 -0.7071 0.7071 83.1386 -63.7437)" class="st4" width="2" height="10"/>
<rect x="134.5" y="46.5" transform="matrix(0.7071 0.7071 -0.7071 0.7071 76.1091 -80.7142)" class="st5" width="2" height="10"/>
<rect x="117.5" y="46.5" transform="matrix(-0.7071 0.7071 -0.7071 -0.7071 238.7437 4.1386)" class="st6" width="2" height="10"/>
<rect x="134.5" y="63.5" transform="matrix(-0.7071 0.7071 -0.7071 -0.7071 279.7143 21.1091)" class="st7" width="2" height="10"/>
</svg>
