<?xml version="1.0" encoding="utf-8"?>
<!-- Generator: Adobe Illustrator 21.0.2, SVG Export Plug-In . SVG Version: 6.00 Build 0)  -->
<svg version="1.1" id="Layer_1" xmlns="http://www.w3.org/2000/svg" xmlns:xlink="http://www.w3.org/1999/xlink" x="0px" y="0px"
	 width="254px" height="120px" viewBox="0 0 254 120" style="enable-background:new 0 0 254 120;" xml:space="preserve">
<style type="text/css">
	.st0{fill:#6F7076;}
</style>
<g>
	<g>
		<path class="st0" d="M140,47v26h-26V47H140 M142,45h-30v30h30V45L142,45z"/>
	</g>
</g>
<g>
	<rect x="112" y="63" class="st0" width="30" height="12"/>
</g>
</svg>
